,sep_buffer,crowder_potential,v1000,areafrac_1000,vol_domain_fenics,vol_domain_net,vol_pore_net,free_vol_fraction,inclusion_count,area_1000,area_1001,totflux_A_1000,totflux_A_pore,totflux_B_1000,totflux_B_pore,pore_conc_A,pore_conc_B
0,5.75,0.0,0.0,1.0,14749.416777106737,14780.878145,12257.878145,0.995358,7.0,49.79077129121032,0.0,0.002288259349576997,0.00010695883971833737,-0.0022179337626308253,0.000877222375264839,nan,nan
1,1.75,0.0,0.0,1.0,14421.891842542966,14437.884488,11914.884488,0.967507,94.0,49.79077129121032,0.0,0.0022247931981959597,0.00010067271104468591,-0.002163602586003773,0.0008521143103074327,nan,nan
2,1.0,0.0,0.0,1.0,14290.128924249677,14299.898534,11776.898534,0.956302,129.0,49.79077129121032,0.0,0.002196623800215087,0.00010011000221099684,-0.0021397642970753406,0.0008415916899474278,nan,nan
3,0.425,0.0,0.0,1.0,13198.780733349087,13203.895813,10680.895813,0.867305,407.0,52.14644343217578,0.0,0.0019711258651449338,8.287937922026258e-05,-0.0019344795299066626,0.0007480864453125719,nan,nan
4,0.3,0.0,0.0,1.0,13101.942078129026,13105.334418,10582.334418,0.859301,432.0,50.517836521024876,0.0,0.001956394903484477,8.273744275677802e-05,-0.0019237632507902412,0.0007433822140479721,nan,nan
5,0.03,0.0,0.0,1.0,10355.35649102182,10310.133234,7787.133234,0.632327,1141.0,61.21457822057396,0.0,0.0012152131334548096,4.8065198477171955e-05,-0.001140419097413515,0.0004583681744218369,nan,nan
