"conc_C","vtkValidPointMask","arc_length","Points:0","Points:1","Points:2"
nan,0,0,0,-7.25,12.45
nan,0,0.145,0,-7.105,12.45
0.00020187,1,0.29,0,-6.96,12.45
0.00020198,1,0.435,0,-6.815,12.45
0.0002021,1,0.58,0,-6.67,12.45
0.00020222,1,0.725,0,-6.525,12.45
0.00020233,1,0.87,0,-6.38,12.45
0.00020243,1,1.015,0,-6.235,12.45
0.00020252,1,1.16,0,-6.09,12.45
0.00020283,1,1.305,0,-5.945,12.45
0.00020313,1,1.45,0,-5.8,12.45
0.00020343,1,1.595,0,-5.655,12.45
0.00020373,1,1.74,0,-5.51,12.45
0.00020402,1,1.885,0,-5.365,12.45
0.00020432,1,2.03,0,-5.22,12.45
0.00020479,1,2.175,0,-5.075,12.45
0.00020535,1,2.32,0,-4.93,12.45
0.00020586,1,2.465,0,-4.785,12.45
0.00020637,1,2.61,0,-4.64,12.45
0.00020689,1,2.755,0,-4.495,12.45
0.00020762,1,2.9,0,-4.35,12.45
0.00020847,1,3.045,0,-4.205,12.45
0.0002094,1,3.19,0,-4.06,12.45
0.00021034,1,3.335,0,-3.915,12.45
0.00021118,1,3.48,0,-3.77,12.45
0.00021246,1,3.625,0,-3.625,12.45
0.00021382,1,3.77,0,-3.48,12.45
0.00021517,1,3.915,0,-3.335,12.45
0.00021663,1,4.06,0,-3.19,12.45
0.00021792,1,4.205,0,-3.045,12.45
0.00021974,1,4.35,0,-2.9,12.45
0.00022137,1,4.495,0,-2.755,12.45
0.00022305,1,4.64,0,-2.61,12.45
0.00022523,1,4.785,0,-2.465,12.45
0.00022826,1,4.93,0,-2.32,12.45
0.00023131,1,5.075,0,-2.175,12.45
0.00023405,1,5.22,0,-2.03,12.45
0.00023683,1,5.365,0,-1.885,12.45
0.00023994,1,5.51,0,-1.74,12.45
0.00024444,1,5.655,0,-1.595,12.45
0.00024894,1,5.8,0,-1.45,12.45
0.00025266,1,5.945,0,-1.305,12.45
0.00025608,1,6.09,0,-1.16,12.45
0.00026081,1,6.235,0,-1.015,12.45
0.00026935,1,6.38,0,-0.87,12.45
0.00027129,1,6.525,0,-0.725,12.45
0.00027313,1,6.67,0,-0.58,12.45
0.00027633,1,6.815,0,-0.435,12.45
0.00027674,1,6.96,0,-0.29,12.45
0.00027725,1,7.105,0,-0.145,12.45
0.00027759,1,7.25,0,0,12.45
0.00027713,1,7.395,0,0.145,12.45
0.00027667,1,7.54,0,0.29,12.45
0.00027632,1,7.685,0,0.435,12.45
0.00027155,1,7.83,0,0.58,12.45
0.00026791,1,7.975,0,0.725,12.45
0.0002649,1,8.12,0,0.87,12.45
0.00026187,1,8.265,0,1.015,12.45
0.00025757,1,8.41,0,1.16,12.45
0.00025335,1,8.555,0,1.305,12.45
0.00024899,1,8.7,0,1.45,12.45
0.00024362,1,8.845,0,1.595,12.45
0.0002405,1,8.99,0,1.74,12.45
0.00023738,1,9.135,0,1.885,12.45
0.00023414,1,9.28,0,2.03,12.45
0.00023042,1,9.425,0,2.175,12.45
0.000228,1,9.57,0,2.32,12.45
0.00022569,1,9.715,0,2.465,12.45
0.00022353,1,9.86,0,2.61,12.45
0.00022139,1,10.005,0,2.755,12.45
0.00021966,1,10.15,0,2.9,12.45
0.00021793,1,10.295,0,3.045,12.45
0.00021619,1,10.44,0,3.19,12.45
0.00021474,1,10.585,0,3.335,12.45
0.00021359,1,10.73,0,3.48,12.45
0.00021243,1,10.875,0,3.625,12.45
0.00021126,1,11.02,0,3.77,12.45
0.00021007,1,11.165,0,3.915,12.45
0.00020926,1,11.31,0,4.06,12.45
0.00020851,1,11.455,0,4.205,12.45
0.00020776,1,11.6,0,4.35,12.45
0.00020717,1,11.745,0,4.495,12.45
0.00020659,1,11.89,0,4.64,12.45
0.000206,1,12.035,0,4.785,12.45
0.00020542,1,12.18,0,4.93,12.45
0.00020481,1,12.325,0,5.075,12.45
0.00020429,1,12.47,0,5.22,12.45
0.00020377,1,12.615,0,5.365,12.45
0.0002035,1,12.76,0,5.51,12.45
0.00020331,1,12.905,0,5.655,12.45
0.00020307,1,13.05,0,5.8,12.45
0.00020273,1,13.195,0,5.945,12.45
0.00020237,1,13.34,0,6.09,12.45
0.00020228,1,13.485,0,6.235,12.45
0.00020222,1,13.63,0,6.38,12.45
0.00020214,1,13.775,0,6.525,12.45
0.00020204,1,13.92,0,6.67,12.45
0.00020195,1,14.065,0,6.815,12.45
0.00020185,1,14.21,0,6.96,12.45
nan,0,14.355,0,7.105,12.45
nan,0,14.5,0,7.25,12.45
