"conc_A","vtkValidPointMask","arc_length","Points:0","Points:1","Points:2"
nan,0,0,0,-7.25,12.4
nan,0,0.145,0,-7.105,12.4
7.7962e-05,1,0.29,0,-6.96,12.4
7.8047e-05,1,0.435,0,-6.815,12.4
7.8183e-05,1,0.58,0,-6.67,12.4
7.8315e-05,1,0.725,0,-6.525,12.4
7.8583e-05,1,0.87,0,-6.38,12.4
nan,0,1.015,0,-6.235,12.4
nan,0,1.16,0,-6.09,12.4
nan,0,1.305,0,-5.945,12.4
nan,0,1.45,0,-5.8,12.4
nan,0,1.595,0,-5.655,12.4
nan,0,1.74,0,-5.51,12.4
nan,0,1.885,0,-5.365,12.4
nan,0,2.03,0,-5.22,12.4
nan,0,2.175,0,-5.075,12.4
nan,0,2.32,0,-4.93,12.4
nan,0,2.465,0,-4.785,12.4
nan,0,2.61,0,-4.64,12.4
nan,0,2.755,0,-4.495,12.4
6.8674e-05,1,2.9,0,-4.35,12.4
6.7647e-05,1,3.045,0,-4.205,12.4
6.6725e-05,1,3.19,0,-4.06,12.4
6.5681e-05,1,3.335,0,-3.915,12.4
6.4614e-05,1,3.48,0,-3.77,12.4
6.3446e-05,1,3.625,0,-3.625,12.4
6.2161e-05,1,3.77,0,-3.48,12.4
6.0923e-05,1,3.915,0,-3.335,12.4
5.9546e-05,1,4.06,0,-3.19,12.4
5.8018e-05,1,4.205,0,-3.045,12.4
5.6475e-05,1,4.35,0,-2.9,12.4
5.4914e-05,1,4.495,0,-2.755,12.4
5.3015e-05,1,4.64,0,-2.61,12.4
5.1229e-05,1,4.785,0,-2.465,12.4
4.972e-05,1,4.93,0,-2.32,12.4
4.763e-05,1,5.075,0,-2.175,12.4
4.5775e-05,1,5.22,0,-2.03,12.4
4.3892e-05,1,5.365,0,-1.885,12.4
4.1601e-05,1,5.51,0,-1.74,12.4
3.9435e-05,1,5.655,0,-1.595,12.4
3.7269e-05,1,5.8,0,-1.45,12.4
3.5331e-05,1,5.945,0,-1.305,12.4
3.3331e-05,1,6.09,0,-1.16,12.4
3.1061e-05,1,6.235,0,-1.015,12.4
2.9487e-05,1,6.38,0,-0.87,12.4
2.6929e-05,1,6.525,0,-0.725,12.4
2.4431e-05,1,6.67,0,-0.58,12.4
2.3191e-05,1,6.815,0,-0.435,12.4
2.2863e-05,1,6.96,0,-0.29,12.4
2.2501e-05,1,7.105,0,-0.145,12.4
2.2509e-05,1,7.25,0,0,12.4
2.3383e-05,1,7.395,0,0.145,12.4
2.3301e-05,1,7.54,0,0.29,12.4
2.38e-05,1,7.685,0,0.435,12.4
2.6367e-05,1,7.83,0,0.58,12.4
2.7488e-05,1,7.975,0,0.725,12.4
2.8849e-05,1,8.12,0,0.87,12.4
3.1149e-05,1,8.265,0,1.015,12.4
3.3561e-05,1,8.41,0,1.16,12.4
3.5648e-05,1,8.555,0,1.305,12.4
3.7379e-05,1,8.7,0,1.45,12.4
3.9093e-05,1,8.845,0,1.595,12.4
4.138e-05,1,8.99,0,1.74,12.4
4.3927e-05,1,9.135,0,1.885,12.4
4.5693e-05,1,9.28,0,2.03,12.4
4.7639e-05,1,9.425,0,2.175,12.4
4.9626e-05,1,9.57,0,2.32,12.4
5.1396e-05,1,9.715,0,2.465,12.4
5.2833e-05,1,9.86,0,2.61,12.4
5.4599e-05,1,10.005,0,2.755,12.4
5.6469e-05,1,10.15,0,2.9,12.4
5.8048e-05,1,10.295,0,3.045,12.4
5.9507e-05,1,10.44,0,3.19,12.4
6.0836e-05,1,10.585,0,3.335,12.4
6.215e-05,1,10.73,0,3.48,12.4
6.3496e-05,1,10.875,0,3.625,12.4
6.4618e-05,1,11.02,0,3.77,12.4
6.563e-05,1,11.165,0,3.915,12.4
6.6677e-05,1,11.31,0,4.06,12.4
6.7758e-05,1,11.455,0,4.205,12.4
6.8617e-05,1,11.6,0,4.35,12.4
nan,0,11.745,0,4.495,12.4
nan,0,11.89,0,4.64,12.4
nan,0,12.035,0,4.785,12.4
nan,0,12.18,0,4.93,12.4
nan,0,12.325,0,5.075,12.4
nan,0,12.47,0,5.22,12.4
nan,0,12.615,0,5.365,12.4
nan,0,12.76,0,5.51,12.4
nan,0,12.905,0,5.655,12.4
nan,0,13.05,0,5.8,12.4
nan,0,13.195,0,5.945,12.4
nan,0,13.34,0,6.09,12.4
nan,0,13.485,0,6.235,12.4
7.8728e-05,1,13.63,0,6.38,12.4
7.8424e-05,1,13.775,0,6.525,12.4
7.8119e-05,1,13.92,0,6.67,12.4
7.8049e-05,1,14.065,0,6.815,12.4
7.7962e-05,1,14.21,0,6.96,12.4
nan,0,14.355,0,7.105,12.4
nan,0,14.5,0,7.25,12.4
