"conc_A","vtkValidPointMask","arc_length","Points:0","Points:1","Points:2"
nan,0,0,0,-7.25,12.4
nan,0,0.145,0,-7.105,12.4
8.0744e-05,1,0.29,0,-6.96,12.4
8.0606e-05,1,0.435,0,-6.815,12.4
8.0468e-05,1,0.58,0,-6.67,12.4
8.033e-05,1,0.725,0,-6.525,12.4
8.0192e-05,1,0.87,0,-6.38,12.4
8.007e-05,1,1.015,0,-6.235,12.4
7.9967e-05,1,1.16,0,-6.09,12.4
7.9671e-05,1,1.305,0,-5.945,12.4
7.9248e-05,1,1.45,0,-5.8,12.4
7.8879e-05,1,1.595,0,-5.655,12.4
7.8541e-05,1,1.74,0,-5.51,12.4
7.8202e-05,1,1.885,0,-5.365,12.4
7.7864e-05,1,2.03,0,-5.22,12.4
7.7526e-05,1,2.175,0,-5.075,12.4
7.7098e-05,1,2.32,0,-4.93,12.4
7.6441e-05,1,2.465,0,-4.785,12.4
7.5502e-05,1,2.61,0,-4.64,12.4
7.4744e-05,1,2.755,0,-4.495,12.4
7.3912e-05,1,2.9,0,-4.35,12.4
7.315e-05,1,3.045,0,-4.205,12.4
7.2387e-05,1,3.19,0,-4.06,12.4
7.1624e-05,1,3.335,0,-3.915,12.4
7.0728e-05,1,3.48,0,-3.77,12.4
6.9351e-05,1,3.625,0,-3.625,12.4
6.7949e-05,1,3.77,0,-3.48,12.4
6.6685e-05,1,3.915,0,-3.335,12.4
6.5522e-05,1,4.06,0,-3.19,12.4
6.4404e-05,1,4.205,0,-3.045,12.4
6.2618e-05,1,4.35,0,-2.9,12.4
6.0774e-05,1,4.495,0,-2.755,12.4
5.893e-05,1,4.64,0,-2.61,12.4
5.7259e-05,1,4.785,0,-2.465,12.4
5.5978e-05,1,4.93,0,-2.32,12.4
5.4211e-05,1,5.075,0,-2.175,12.4
5.1548e-05,1,5.22,0,-2.03,12.4
4.8654e-05,1,5.365,0,-1.885,12.4
4.5939e-05,1,5.51,0,-1.74,12.4
4.3306e-05,1,5.655,0,-1.595,12.4
4.1127e-05,1,5.8,0,-1.45,12.4
3.9768e-05,1,5.945,0,-1.305,12.4
3.7767e-05,1,6.09,0,-1.16,12.4
3.5523e-05,1,6.235,0,-1.015,12.4
3.3896e-05,1,6.38,0,-0.87,12.4
3.1053e-05,1,6.525,0,-0.725,12.4
2.8234e-05,1,6.67,0,-0.58,12.4
2.6289e-05,1,6.815,0,-0.435,12.4
2.5998e-05,1,6.96,0,-0.29,12.4
2.5889e-05,1,7.105,0,-0.145,12.4
2.5821e-05,1,7.25,0,0,12.4
2.5279e-05,1,7.395,0,0.145,12.4
2.4485e-05,1,7.54,0,0.29,12.4
2.6087e-05,1,7.685,0,0.435,12.4
2.9703e-05,1,7.83,0,0.58,12.4
3.2307e-05,1,7.975,0,0.725,12.4
3.3622e-05,1,8.12,0,0.87,12.4
3.558e-05,1,8.265,0,1.015,12.4
3.7793e-05,1,8.41,0,1.16,12.4
3.9715e-05,1,8.555,0,1.305,12.4
4.1642e-05,1,8.7,0,1.45,12.4
4.3978e-05,1,8.845,0,1.595,12.4
4.6367e-05,1,8.99,0,1.74,12.4
4.8857e-05,1,9.135,0,1.885,12.4
5.1362e-05,1,9.28,0,2.03,12.4
5.3834e-05,1,9.425,0,2.175,12.4
5.5946e-05,1,9.57,0,2.32,12.4
5.7594e-05,1,9.715,0,2.465,12.4
5.9168e-05,1,9.86,0,2.61,12.4
6.0899e-05,1,10.005,0,2.755,12.4
6.2684e-05,1,10.15,0,2.9,12.4
6.4455e-05,1,10.295,0,3.045,12.4
6.5591e-05,1,10.44,0,3.19,12.4
6.6726e-05,1,10.585,0,3.335,12.4
6.802e-05,1,10.73,0,3.48,12.4
6.9465e-05,1,10.875,0,3.625,12.4
7.0568e-05,1,11.02,0,3.77,12.4
7.1518e-05,1,11.165,0,3.915,12.4
7.2467e-05,1,11.31,0,4.06,12.4
7.3417e-05,1,11.455,0,4.205,12.4
7.4303e-05,1,11.6,0,4.35,12.4
7.4914e-05,1,11.745,0,4.495,12.4
7.5458e-05,1,11.89,0,4.64,12.4
7.6002e-05,1,12.035,0,4.785,12.4
7.6546e-05,1,12.18,0,4.93,12.4
7.7114e-05,1,12.325,0,5.075,12.4
7.7841e-05,1,12.47,0,5.22,12.4
7.855e-05,1,12.615,0,5.365,12.4
7.8822e-05,1,12.76,0,5.51,12.4
7.9097e-05,1,12.905,0,5.655,12.4
7.9387e-05,1,13.05,0,5.8,12.4
7.9561e-05,1,13.195,0,5.945,12.4
7.9762e-05,1,13.34,0,6.09,12.4
7.9963e-05,1,13.485,0,6.235,12.4
8.0164e-05,1,13.63,0,6.38,12.4
8.0349e-05,1,13.775,0,6.525,12.4
8.0481e-05,1,13.92,0,6.67,12.4
8.0613e-05,1,14.065,0,6.815,12.4
8.0745e-05,1,14.21,0,6.96,12.4
nan,0,14.355,0,7.105,12.4
nan,0,14.5,0,7.25,12.4
