"conc_B","vtkValidPointMask","arc_length","Points:0","Points:1","Points:2"
nan,0,0,0,-7.25,17
nan,0,0.145,0,-7.105,17
0.00014516,1,0.29,0,-6.96,17
0.00018627,1,0.435,0,-6.815,17
0.00022739,1,0.58,0,-6.67,17
0.0002685,1,0.725,0,-6.525,17
0.00030961,1,0.87,0,-6.38,17
nan,0,1.015,0,-6.235,17
nan,0,1.16,0,-6.09,17
nan,0,1.305,0,-5.945,17
nan,0,1.45,0,-5.8,17
nan,0,1.595,0,-5.655,17
nan,0,1.74,0,-5.51,17
nan,0,1.885,0,-5.365,17
nan,0,2.03,0,-5.22,17
nan,0,2.175,0,-5.075,17
nan,0,2.32,0,-4.93,17
nan,0,2.465,0,-4.785,17
nan,0,2.61,0,-4.64,17
nan,0,2.755,0,-4.495,17
0.00033882,1,2.9,0,-4.35,17
0.00031835,1,3.045,0,-4.205,17
0.00029788,1,3.19,0,-4.06,17
0.00030359,1,3.335,0,-3.915,17
0.00032623,1,3.48,0,-3.77,17
0.00034888,1,3.625,0,-3.625,17
nan,0,3.77,0,-3.48,17
nan,0,3.915,0,-3.335,17
nan,0,4.06,0,-3.19,17
nan,0,4.205,0,-3.045,17
nan,0,4.35,0,-2.9,17
nan,0,4.495,0,-2.755,17
nan,0,4.64,0,-2.61,17
nan,0,4.785,0,-2.465,17
nan,0,4.93,0,-2.32,17
nan,0,5.075,0,-2.175,17
nan,0,5.22,0,-2.03,17
nan,0,5.365,0,-1.885,17
0.00035232,1,5.51,0,-1.74,17
0.00033207,1,5.655,0,-1.595,17
0.00031183,1,5.8,0,-1.45,17
0.00030141,1,5.945,0,-1.305,17
0.00032172,1,6.09,0,-1.16,17
0.00034209,1,6.235,0,-1.015,17
nan,0,6.38,0,-0.87,17
nan,0,6.525,0,-0.725,17
nan,0,6.67,0,-0.58,17
nan,0,6.815,0,-0.435,17
nan,0,6.96,0,-0.29,17
nan,0,7.105,0,-0.145,17
nan,0,7.25,0,0,17
nan,0,7.395,0,0.145,17
nan,0,7.54,0,0.29,17
nan,0,7.685,0,0.435,17
nan,0,7.83,0,0.58,17
nan,0,7.975,0,0.725,17
nan,0,8.12,0,0.87,17
0.00034231,1,8.265,0,1.015,17
0.00032189,1,8.41,0,1.16,17
0.00030148,1,8.555,0,1.305,17
0.00030758,1,8.7,0,1.45,17
0.00033001,1,8.845,0,1.595,17
0.00035248,1,8.99,0,1.74,17
nan,0,9.135,0,1.885,17
nan,0,9.28,0,2.03,17
nan,0,9.425,0,2.175,17
nan,0,9.57,0,2.32,17
nan,0,9.715,0,2.465,17
nan,0,9.86,0,2.61,17
nan,0,10.005,0,2.755,17
nan,0,10.15,0,2.9,17
nan,0,10.295,0,3.045,17
nan,0,10.44,0,3.19,17
nan,0,10.585,0,3.335,17
nan,0,10.73,0,3.48,17
0.00034827,1,10.875,0,3.625,17
0.00032717,1,11.02,0,3.77,17
0.00030607,1,11.165,0,3.915,17
0.0002984,1,11.31,0,4.06,17
0.00031855,1,11.455,0,4.205,17
0.0003387,1,11.6,0,4.35,17
nan,0,11.745,0,4.495,17
nan,0,11.89,0,4.64,17
nan,0,12.035,0,4.785,17
nan,0,12.18,0,4.93,17
nan,0,12.325,0,5.075,17
nan,0,12.47,0,5.22,17
nan,0,12.615,0,5.365,17
nan,0,12.76,0,5.51,17
nan,0,12.905,0,5.655,17
nan,0,13.05,0,5.8,17
nan,0,13.195,0,5.945,17
nan,0,13.34,0,6.09,17
nan,0,13.485,0,6.235,17
0.00031171,1,13.63,0,6.38,17
0.0002701,1,13.775,0,6.525,17
0.0002285,1,13.92,0,6.67,17
0.00018689,1,14.065,0,6.815,17
0.00014528,1,14.21,0,6.96,17
nan,0,14.355,0,7.105,17
nan,0,14.5,0,7.25,17
