,sep_buffer,crowder_potential,v1000,areafrac_1000,vol_domain_fenics,vol_domain_net,vol_pore_net,free_vol_fraction,inclusion_count,area_1000,area_1001,totflux_A_1000,totflux_A_pore,totflux_B_1000,totflux_B_pore,pore_conc_A,pore_conc_B
0,5.0,0.0,0.025,0.1,28601.60855847019,28609.527701,21167.527701,0.998198,10.0,3.5916785663655584,46.19909272484483,0.003739224266181162,0.0010294637118709248,-0.0027107933695114765,0.0011491250091110667,0.0006,nan
1,5.0,0.0,0.02,0.1,28601.608558470198,28609.527701,21167.527701,0.998198,10.0,3.5916785663655584,46.19909272484483,0.0034223901636456834,0.0011705365888136125,-0.0025257608284985997,0.0010541634609666545,0.0006,nan
2,5.0,0.0,0.015,0.1,28601.608558470183,28609.527701,21167.527701,0.998198,10.0,3.5916785663655584,46.19909272484483,0.003120093790863936,0.0012995599803242277,-0.002339952239158374,0.0009635347313984985,0.0006,nan
3,5.0,0.0,0.01,0.1,28601.608558470194,28609.527701,21167.527701,0.998198,10.0,3.5916785663655584,46.19909272484483,0.0028330468820156845,0.0014175484863226963,-0.0021555994949382447,0.00087741589932133,0.0006,nan
4,5.0,0.0,0.005,0.1,28601.608558470172,28609.527701,21167.527701,0.998198,10.0,3.5916785663655584,46.19909272484483,0.0025618204164379603,0.0015250384632469554,-0.0019746314145561513,0.0007961686522233208,0.0006,nan
5,5.0,0.0,0.0,0.1,28601.60855847021,28609.527701,21167.527701,0.998198,10.0,3.5916785663655584,46.19909272484483,0.002306825301904997,0.0016228662905066215,-0.001798782055709182,0.0007196539121315662,0.0006,nan
6,5.0,0.0,-0.005,0.1,28601.608558470198,28609.527701,21167.527701,0.998198,10.0,3.5916785663655584,46.19909272484483,0.00206833756112908,0.001711503678538607,-0.0016295727743842387,0.0006481717206619406,0.0006,nan
7,5.0,0.0,-0.01,0.1,28601.608558470205,28609.527701,21167.527701,0.998198,10.0,3.5916785663655584,46.19909272484483,0.001846412980291279,0.001791882554455048,-0.0014682337167107214,0.0005815426596103458,0.0006,nan
8,5.0,0.0,-0.015,0.1,28601.608558470223,28609.527701,21167.527701,0.998198,10.0,3.5916785663655584,46.19909272484483,0.0016411070931102486,0.00186408055400042,-0.0013158176497149508,0.0005199219075169754,0.0006,nan
9,5.0,0.0,-0.02,0.1,28601.608558470183,28609.527701,21167.527701,0.998198,10.0,3.5916785663655584,46.19909272484483,0.0014521083060800655,0.0019293882853401014,-0.0011730002668123808,0.00046304930249831323,0.0006,nan
10,5.0,0.0,-0.025,0.1,28601.608558470223,28609.527701,21167.527701,0.998198,10.0,3.5916785663655584,46.19909272484483,0.0012790928851227322,0.0019879217204652874,-0.0010402972349562308,0.00041093904997898024,0.0006,nan
11,5.0,0.0,0.025,0.2,28601.608558470223,28609.527701,21167.527701,0.998198,10.0,7.770712965019921,42.02005832619048,0.006196386796953854,0.0003029526489953098,-0.004761957840884614,0.0019459109863613191,0.0006,nan
12,5.0,0.0,0.02,0.2,28601.608558470245,28609.527701,21167.527701,0.998198,10.0,7.770712965019921,42.02005832619048,0.0057485335542738405,0.0004847822961414366,-0.004503518872951305,0.0018083092553774975,0.0006,nan
13,5.0,0.0,0.015,0.2,28601.608558470172,28609.527701,21167.527701,0.998198,10.0,7.770712965019921,42.02005832619048,0.005310656338331913,0.0006546077402639683,-0.004232936710241498,0.0016736114831907608,0.0006,nan
14,5.0,0.0,0.01,0.2,28601.608558470198,28609.527701,21167.527701,0.998198,10.0,7.770712965019921,42.02005832619048,0.0048849502429992135,0.0008135732550085263,-0.0039542648538518676,0.0015427214707912015,0.0006,nan
15,5.0,0.0,0.005,0.2,28601.608558470198,28609.527701,21167.527701,0.998198,10.0,7.770712965019921,42.02005832619048,0.00447338474884818,0.0009617271364238644,-0.0036714176175183877,0.0014163309403700238,0.0006,nan
16,5.0,0.0,0.0,0.2,28601.608558470223,28609.527701,21167.527701,0.998198,10.0,7.770712965019921,42.02005832619048,0.004077797738826141,0.0010994414679723465,-0.0033880908225022537,0.001294922693752345,0.0006,nan
17,5.0,0.0,-0.005,0.2,28601.60855847019,28609.527701,21167.527701,0.998198,10.0,7.770712965019921,42.02005832619048,0.0036998540275229824,0.0012268322738528711,-0.003107817066906636,0.0011790083174452873,0.0006,nan
18,5.0,0.0,-0.01,0.2,28601.608558470216,28609.527701,21167.527701,0.998198,10.0,7.770712965019921,42.02005832619048,0.0033409049391288506,0.001344647303662428,-0.0028336859848769793,0.0010690162336870154,0.0006,nan
19,5.0,0.0,-0.015,0.2,28601.608558470216,28609.527701,21167.527701,0.998198,10.0,7.770712965019921,42.02005832619048,0.003002080142890809,0.0014532469947482422,-0.0025684564253220907,0.0009652026073227497,0.0006,nan
20,5.0,0.0,-0.02,0.2,28601.608558470223,28609.527701,21167.527701,0.998198,10.0,7.770712965019921,42.02005832619048,0.002684232565595909,0.0015531547317621385,-0.0023144578369653735,0.0008679571778971498,0.0006,nan
21,5.0,0.0,-0.025,0.2,28601.608558470212,28609.527701,21167.527701,0.998198,10.0,7.770712965019921,42.02005832619048,0.0023879776763106337,0.0016445013744626335,-0.002073607910399848,0.000777186085583864,0.0006,nan
22,5.0,0.0,0.025,0.3,28601.608558470198,28609.527701,21167.527701,0.998198,10.0,12.147431156965052,37.64334013424536,0.008404867410036841,-0.00033745939928748564,-0.006669349769781499,0.0027102397397580423,0.0006,nan
23,5.0,0.0,0.02,0.3,28601.60855847025,28609.527701,21167.527701,0.998198,10.0,12.147431156965052,37.64334013424536,0.007858934470596088,-0.00012795226127233238,-0.0063585287161611916,0.0025362485247814514,0.0006,nan
24,5.0,0.0,0.015,0.3,28601.60855847025,28609.527701,21167.527701,0.998198,10.0,12.147431156965052,37.64334013424536,0.007316695101994957,7.159582192910558e-05,-0.006023737241651466,0.002363404268638942,0.0006,nan
25,5.0,0.0,0.01,0.3,28601.60855847025,28609.527701,21167.527701,0.998198,10.0,12.147431156965052,37.64334013424536,0.006781380639340943,0.0002609086944405366,-0.00567046474824445,0.002193050443945749,0.0006,nan
26,5.0,0.0,0.005,0.3,28601.608558470205,28609.527701,21167.527701,0.998198,10.0,12.147431156965052,37.64334013424536,0.006256163384199056,0.0004401840268941634,-0.005304167060559457,0.0020262490483990443,0.0006,nan
27,5.0,0.0,0.0,0.3,28601.608558470252,28609.527701,21167.527701,0.998198,10.0,12.147431156965052,37.64334013424536,0.005744274375800353,0.0006092104076536931,-0.004930440650505772,0.0018639135885422146,0.0006,nan
28,5.0,0.0,-0.005,0.3,28601.608558470245,28609.527701,21167.527701,0.998198,10.0,12.147431156965052,37.64334013424536,0.00524848095746442,0.0007681892500933621,-0.004554310047775618,0.0017070921314484549,0.0006,nan
29,5.0,0.0,-0.01,0.3,28601.608558470205,28609.527701,21167.527701,0.998198,10.0,12.147431156965052,37.64334013424536,0.004771397380763448,0.000917261907881312,-0.004180617613717052,0.001556723352919409,0.0006,nan
30,5.0,0.0,-0.015,0.3,28601.608558470194,28609.527701,21167.527701,0.998198,10.0,12.147431156965052,37.64334013424536,0.004315575102169911,0.0010564430041072,-0.0038139088328837927,0.0014132997862879397,0.0006,nan
31,5.0,0.0,-0.02,0.3,28601.608558470198,28609.527701,21167.527701,0.998198,10.0,12.147431156965052,37.64334013424536,0.0038828637474168327,0.0011863868904965435,-0.0034580744466896087,0.0012773706986325523,0.0006,nan
32,5.0,0.0,-0.025,0.3,28601.608558470198,28609.527701,21167.527701,0.998198,10.0,12.147431156965052,37.64334013424536,0.0034749862088588697,0.0013069357897958715,-0.0031165251345472494,0.0011494926955002871,0.0006,nan
33,5.0,0.0,0.025,0.4,28601.608558470245,28609.527701,21167.527701,0.998198,10.0,17.22002654548703,32.57074474572336,0.010488230756089635,-0.0010251817373581641,-0.0085351381342943,0.003454263615669954,0.0006,nan
34,5.0,0.0,0.02,0.4,28601.60855847025,28609.527701,21167.527701,0.998198,10.0,17.22002654548703,32.57074474572336,0.009875225221650534,-0.0007936109632188497,-0.008195044627686639,0.003255362663705514,0.0006,nan
35,5.0,0.0,0.015,0.4,28601.608558470212,28609.527701,21167.527701,0.998198,10.0,17.22002654548703,32.57074474572336,0.009257115961285797,-0.000569436052820074,-0.007817916127286951,0.003053766977157112,0.0006,nan
36,5.0,0.0,0.01,0.4,28601.608558470183,28609.527701,21167.527701,0.998198,10.0,17.22002654548703,32.57074474572336,0.008638017295821048,-0.00035353213745837995,-0.007409885059525381,0.002853017929822847,0.0006,nan
37,5.0,0.0,0.005,0.4,28601.608558470172,28609.527701,21167.527701,0.998198,10.0,17.22002654548703,32.57074474572336,0.008022228923584463,-0.0001461850255063388,-0.006978020271009381,0.0026527479735699864,0.0006,nan
38,5.0,0.0,0.0,0.4,28601.60855847025,28609.527701,21167.527701,0.998198,10.0,17.22002654548703,32.57074474572336,0.007413955680137902,5.2384398535877956e-05,-0.006529026629636242,0.00245527813379343,0.0006,nan
39,5.0,0.0,-0.005,0.4,28601.608558470198,28609.527701,21167.527701,0.998198,10.0,17.22002654548703,32.57074474572336,0.006817355978196752,0.00024193230546803586,-0.006069719591862365,0.0022619703238999284,0.0006,nan
40,5.0,0.0,-0.01,0.4,28601.60855847021,28609.527701,21167.527701,0.998198,10.0,17.22002654548703,32.57074474572336,0.006236382679016686,0.0004222158855976608,-0.005606593232347848,0.0020742130534925256,0.0006,nan
41,5.0,0.0,-0.015,0.4,28601.608558470216,28609.527701,21167.527701,0.998198,10.0,17.22002654548703,32.57074474572336,0.005674716108397517,0.0005929899863761387,-0.005145763795006008,0.0018931471366020799,0.0006,nan
42,5.0,0.0,-0.02,0.4,28601.608558470172,28609.527701,21167.527701,0.998198,10.0,17.22002654548703,32.57074474572336,0.005135674615326943,0.0007540509477303517,-0.004692983084533583,0.001719904695790811,0.0006,nan
43,5.0,0.0,-0.025,0.4,28601.608558470223,28609.527701,21167.527701,0.998198,10.0,17.22002654548703,32.57074474572336,0.004622225077434548,0.0009057189242196191,-0.004253276027617985,0.0015551339603336743,0.0006,nan
44,5.0,0.0,0.025,0.5,28601.608558470198,28609.527701,21167.527701,0.998198,10.0,24.89436759530586,24.896403695904525,0.01353533317968734,-0.0018856359974466841,-0.011384427596207976,0.004690324630794076,0.0006,nan
45,5.0,0.0,0.02,0.5,28601.60855847025,28609.527701,21167.527701,0.998198,10.0,24.89436759530586,24.896403695904525,0.012813591232342377,-0.0016380576594178207,-0.010987906532226277,0.00443780687546549,0.0006,nan
46,5.0,0.0,0.015,0.5,28601.60855847019,28609.527701,21167.527701,0.998198,10.0,24.89436759530586,24.896403695904525,0.012077381521600886,-0.0013941427258878565,-0.010537395662763611,0.004180836555749199,0.0006,nan
47,5.0,0.0,0.01,0.5,28601.608558470212,28609.527701,21167.527701,0.998198,10.0,24.89436759530586,24.896403695904525,0.011331648013835469,-0.0011546670228061427,-0.010040775834763779,0.003920965270708046,0.0006,nan
48,5.0,0.0,0.005,0.5,28601.608558470223,28609.527701,21167.527701,0.998198,10.0,24.89436759530586,24.896403695904525,0.010581689356060457,-0.0009206442606113938,-0.009506135061595901,0.0036610662206465827,0.0006,nan
49,5.0,0.0,0.0,0.5,28601.60855847025,28609.527701,21167.527701,0.998198,10.0,24.89436759530586,24.896403695904525,0.009832891169669731,-0.0006919363521941998,-0.008942471278430383,0.0034013288577755393,0.0006,nan
50,5.0,0.0,-0.005,0.5,28601.608558470252,28609.527701,21167.527701,0.998198,10.0,24.89436759530586,24.896403695904525,0.00909065464038562,-0.0004699746814082149,-0.008357876832378704,0.003146326517863536,0.0006,nan
51,5.0,0.0,-0.01,0.5,28601.608558470172,28609.527701,21167.527701,0.998198,10.0,24.89436759530586,24.896403695904525,0.008360483031245008,-0.0002557265206241383,-0.007761339170387614,0.0028961035487692745,0.0006,nan
52,5.0,0.0,-0.015,0.5,28601.608558470194,28609.527701,21167.527701,0.998198,10.0,24.89436759530586,24.896403695904525,0.007647537483148157,-4.896216094718712e-05,-0.007161067876185,0.002652955828002977,0.0006,nan
53,5.0,0.0,-0.02,0.5,28601.608558470198,28609.527701,21167.527701,0.998198,10.0,24.89436759530586,24.896403695904525,0.006956718520554423,0.00014933484872275534,-0.006564944657565472,0.002418720605310412,0.0006,nan
54,5.0,0.0,-0.025,0.5,28601.608558470183,28609.527701,21167.527701,0.998198,10.0,24.89436759530586,24.896403695904525,0.0062926089767900975,0.0003385667433453507,-0.0059801793368753535,0.0021944588847025125,0.0006,nan
55,5.0,0.0,0.025,0.6,28601.608558470223,28609.527701,21167.527701,0.998198,10.0,27.61617316625526,22.174598124955118,0.014238166764760876,-0.0022535572267115495,-0.011982707170974652,0.0049993494110342936,0.0006,nan
56,5.0,0.0,0.02,0.6,28601.608558470172,28609.527701,21167.527701,0.998198,10.0,27.61617316625526,22.174598124955118,0.013516530952671251,-0.002002587042969479,-0.011597185785686226,0.004743844347702432,0.0006,nan
57,5.0,0.0,0.015,0.6,28601.608558470223,28609.527701,21167.527701,0.998198,10.0,27.61617316625526,22.174598124955118,0.012775352032338943,-0.001753314095247303,-0.011152343173593624,0.004481069500033675,0.0006,nan
58,5.0,0.0,0.01,0.6,28601.608558470183,28609.527701,21167.527701,0.998198,10.0,27.61617316625526,22.174598124955118,0.01201970252401847,-0.0015065570476461864,-0.010655905587852735,0.004213459437047465,0.0006,nan
59,5.0,0.0,0.005,0.6,28601.608558470205,28609.527701,21167.527701,0.998198,10.0,27.61617316625526,22.174598124955118,0.011254920184471669,-0.0012632109154035807,-0.01011610501756186,0.003943379101249145,0.0006,nan
60,5.0,0.0,0.0,0.6,28601.608558470223,28609.527701,21167.527701,0.998198,10.0,27.61617316625526,22.174598124955118,0.010486683620758339,-0.0010240437700337957,-0.009541554413380353,0.003673876785086268,0.0006,nan
61,5.0,0.0,-0.005,0.6,28601.608558470223,28609.527701,21167.527701,0.998198,10.0,27.61617316625526,22.174598124955118,0.009720876373301506,-0.0007902085400263675,-0.008941524267086743,0.0034058288491188742,0.0006,nan
62,5.0,0.0,-0.01,0.6,28601.608558470198,28609.527701,21167.527701,0.998198,10.0,27.61617316625526,22.174598124955118,0.008963380498090173,-0.0005623947060652841,-0.008325012504022861,0.0031414953692721296,0.0006,nan
63,5.0,0.0,-0.015,0.6,28601.608558470234,28609.527701,21167.527701,0.998198,10.0,27.61617316625526,22.174598124955118,0.008219823114024275,-0.0003413911825688077,-0.0077006252405326615,0.002884056393928179,0.0006,nan
64,5.0,0.0,-0.02,0.6,28601.608558470205,28609.527701,21167.527701,0.998198,10.0,27.61617316625526,22.174598124955118,0.007495757740046202,-0.00012800604197365958,-0.007076947753576202,0.0026352036592175894,0.0006,nan
65,5.0,0.0,-0.025,0.6,28601.608558470223,28609.527701,21167.527701,0.998198,10.0,27.61617316625526,22.174598124955118,0.006796475946332134,7.668399819458147e-05,-0.006462038021103208,0.00239563526066614,0.0006,nan
66,5.0,0.0,0.025,0.7,28601.60855847021,28609.527701,21167.527701,0.998198,10.0,32.643350396126614,17.14742089508376,0.015828405692433007,-0.002732958982582356,-0.013488737797256282,0.005677048923327254,0.0006,nan
67,5.0,0.0,0.02,0.7,28601.608558470245,28609.527701,21167.527701,0.998198,10.0,32.643350396126614,17.14742089508376,0.015065931796029322,-0.0024827316790563634,-0.013088377901988196,0.005399380263665172,0.0006,nan
68,5.0,0.0,0.015,0.7,28601.608558470216,28609.527701,21167.527701,0.998198,10.0,32.643350396126614,17.14742089508376,0.014278261810770517,-0.0022313109203716767,-0.012619144868526715,0.005111969843905882,0.0006,nan
69,5.0,0.0,0.01,0.7,28601.60855847025,28609.527701,21167.527701,0.998198,10.0,32.643350396126614,17.14742089508376,0.013470527488753029,-0.0019797067843425153,-0.01208914344010616,0.004817513594951518,0.0006,nan
70,5.0,0.0,0.005,0.7,28601.608558470205,28609.527701,21167.527701,0.998198,10.0,32.643350396126614,17.14742089508376,0.01264833406290359,-0.0017288600084385186,-0.011507175324621362,0.0045187661920520535,0.0006,nan
71,5.0,0.0,0.0,0.7,28601.608558470194,28609.527701,21167.527701,0.998198,10.0,32.643350396126614,17.14742089508376,0.01181782028415674,-0.001479697029344673,-0.010882737951979984,0.004218337040212887,0.0006,nan
72,5.0,0.0,-0.005,0.7,28601.608558470267,28609.527701,21167.527701,0.998198,10.0,32.643350396126614,17.14742089508376,0.01098525547324576,-0.0012334784962119258,-0.010225457118997935,0.003919410241837876,0.0006,nan
73,5.0,0.0,-0.01,0.7,28601.60855847019,28609.527701,21167.527701,0.998198,10.0,32.643350396126614,17.14742089508376,0.010157178960121608,-0.0009911047362845217,-0.009545615315217346,0.0036233806769429464,0.0006,nan
74,5.0,0.0,-0.015,0.7,28601.608558470172,28609.527701,21167.527701,0.998198,10.0,32.643350396126614,17.14742089508376,0.009340122325956116,-0.0007537367121446365,-0.008853069259745933,0.003333082019486296,0.0006,nan
75,5.0,0.0,-0.02,0.7,28601.60855847025,28609.527701,21167.527701,0.998198,10.0,32.643350396126614,17.14742089508376,0.008540366457856451,-0.000522277182597933,-0.00815740985455314,0.0030507203865211075,0.0006,nan
76,5.0,0.0,-0.025,0.7,28601.608558470245,28609.527701,21167.527701,0.998198,10.0,32.643350396126614,17.14742089508376,0.007764023797885839,-0.0002977817054971954,-0.007467768447248309,0.002778365912198861,0.0006,nan
77,5.0,0.0,0.025,0.8,28601.608558470183,28609.527701,21167.527701,0.998198,10.0,37.89777300933089,11.892998281879494,0.017364862470538017,-0.00315478054885316,-0.015082045232542224,0.0063790603463516745,0.0006,nan
78,5.0,0.0,0.02,0.8,28601.60855847019,28609.527701,21167.527701,0.998198,10.0,37.89777300933089,11.892998281879494,0.016562910130052948,-0.0029101898868360817,-0.014661166698745438,0.006078695386415469,0.0006,nan
79,5.0,0.0,0.015,0.8,28601.608558470223,28609.527701,21167.527701,0.998198,10.0,37.89777300933089,11.892998281879494,0.015731045712823823,-0.002661983471226857,-0.014162663054565178,0.005766196430423325,0.0006,nan
80,5.0,0.0,0.01,0.8,28601.608558470205,28609.527701,21167.527701,0.998198,10.0,37.89777300933089,11.892998281879494,0.014874421690785167,-0.002411008768530567,-0.013594917993309459,0.005444558336835827,0.0006,nan
81,5.0,0.0,0.005,0.8,28601.608558470172,28609.527701,21167.527701,0.998198,10.0,37.89777300933089,11.892998281879494,0.013998808246885475,-0.0021580819264132136,-0.012967355191795756,0.005116720822723494,0.0006,nan
82,5.0,0.0,0.0,0.8,28601.608558470212,28609.527701,21167.527701,0.998198,10.0,37.89777300933089,11.892998281879494,0.013110316757446132,-0.0019043906582411716,-0.012289802137948865,0.004785635192192337,0.0006,nan
83,5.0,0.0,-0.005,0.8,28601.608558470198,28609.527701,21167.527701,0.998198,10.0,37.89777300933089,11.892998281879494,0.012215692080689126,-0.0016510637791715159,-0.011572773950514459,0.004454829976585227,0.0006,nan
84,5.0,0.0,-0.01,0.8,28601.608558470172,28609.527701,21167.527701,0.998198,10.0,37.89777300933089,11.892998281879494,0.011321999702614953,-0.0013993386147431307,-0.010827492127133617,0.004125859142581377,0.0006,nan
85,5.0,0.0,-0.015,0.8,28601.608558470198,28609.527701,21167.527701,0.998198,10.0,37.89777300933089,11.892998281879494,0.010436234881526008,-0.001150203534523277,-0.010064596016544016,0.003802168594034089,0.0006,nan
86,5.0,0.0,-0.02,0.8,28601.608558470212,28609.527701,21167.527701,0.998198,10.0,37.89777300933089,11.892998281879494,0.009565409453645965,-0.0009051323479183313,-0.009294791102063592,0.0034859691310395887,0.0006,nan
87,5.0,0.0,-0.025,0.8,28601.608558470223,28609.527701,21167.527701,0.998198,10.0,37.89777300933089,11.892998281879494,0.008716406164456353,-0.0006652455320764978,-0.008528309485086809,0.0031800463101539487,0.0006,nan
88,5.0,0.0,0.025,0.9,28601.608558470245,28609.527701,21167.527701,0.998198,10.0,43.29852718567896,6.492244105531421,0.018748491540060717,-0.003508005525043397,-0.016423631785371734,0.007022854185965763,0.0006,nan
89,5.0,0.0,0.02,0.9,28601.608558470198,28609.527701,21167.527701,0.998198,10.0,43.29852718567896,6.492244105531421,0.01791034518627233,-0.0032732771537171746,-0.015996121816211788,0.00670231054664736,0.0006,nan
90,5.0,0.0,0.015,0.9,28601.608558470183,28609.527701,21167.527701,0.998198,10.0,43.29852718567896,6.492244105531421,0.017038920074891856,-0.0030329380434247445,-0.015482911989528633,0.00636752054204164,0.0006,nan
91,5.0,0.0,0.01,0.9,28601.608558470198,28609.527701,21167.527701,0.998198,10.0,43.29852718567896,6.492244105531421,0.016139142260380705,-0.0027876632333753144,-0.01489255110712597,0.006021636991749147,0.0006,nan
92,5.0,0.0,0.005,0.9,28601.608558470194,28609.527701,21167.527701,0.998198,10.0,43.29852718567896,6.492244105531421,0.015216677493433604,-0.002538194659475031,-0.014234652805179843,0.005667890933257994,0.0006,nan
93,5.0,0.0,0.0,0.9,28601.608558470172,28609.527701,21167.527701,0.998198,10.0,43.29852718567896,6.492244105531421,0.01427783518977991,-0.0022855286790907326,-0.013519739941181674,0.005309480884348111,0.0006,nan
94,5.0,0.0,-0.005,0.9,28601.608558470198,28609.527701,21167.527701,0.998198,10.0,43.29852718567896,6.492244105531421,0.013329356498824165,-0.002030784300004178,-0.012758819342569444,0.004949533545550849,0.0006,nan
95,5.0,0.0,-0.01,0.9,28601.608558470183,28609.527701,21167.527701,0.998198,10.0,43.29852718567896,6.492244105531421,0.012378542388044167,-0.0017750997285802448,-0.011963464761053188,0.004591161086312955,0.0006,nan
96,5.0,0.0,-0.015,0.9,28601.608558470205,28609.527701,21167.527701,0.998198,10.0,43.29852718567896,6.492244105531421,0.011432690604502922,-0.00151979032772508,-0.011145101996080027,0.004237870355195191,0.0006,nan
97,5.0,0.0,-0.02,0.9,28601.608558470212,28609.527701,21167.527701,0.998198,10.0,43.29852718567896,6.492244105531421,0.010499647247212545,-0.001266412806952782,-0.010315708797278765,0.003891382619248959,0.0006,nan
98,5.0,0.0,-0.025,0.9,28601.608558470198,28609.527701,21167.527701,0.998198,10.0,43.29852718567896,6.492244105531421,0.009586541953356452,-0.0010161007789638514,-0.00948618477184338,0.0035548589464804927,0.0006,nan
99,5.0,0.0,0.025,1.0,28601.60855847025,28609.527701,21167.527701,0.998198,10.0,49.7907712912104,0.0,0.02030914184087395,-0.0037296649523647354,-0.018213001167471172,0.007758860000353284,0.0006,nan
100,5.0,0.0,0.02,1.0,28601.60855847025,28609.527701,21167.527701,0.998198,10.0,49.7907712912104,0.0,0.019424649382052496,-0.003506499991323882,-0.01776433340078056,0.007415371422806065,0.0006,nan
101,5.0,0.0,0.015,1.0,28601.608558470198,28609.527701,21167.527701,0.998198,10.0,49.7907712912104,0.0,0.01850411266487089,-0.0032768929714765953,-0.01722024375902806,0.007055307748430331,0.0006,nan
102,5.0,0.0,0.01,1.0,28601.608558470223,28609.527701,21167.527701,0.998198,10.0,49.7907712912104,0.0,0.017552484323922077,-0.003041185198763362,-0.01658991206169355,0.006682099833539056,0.0006,nan
103,5.0,0.0,0.005,1.0,28601.608558470198,28609.527701,21167.527701,0.998198,10.0,49.7907712912104,0.0,0.01657527167753373,-0.0028001358312739057,-0.01588357337146047,0.006299243250921326,0.0006,nan
104,5.0,0.0,0.0,1.0,28601.608558470245,28609.527701,21167.527701,0.998198,10.0,49.7907712912104,0.0,0.01557880688397935,-0.002554360386635058,-0.015112378552060563,0.005910180776806662,0.0006,nan
105,5.0,0.0,-0.005,1.0,28601.608558470223,28609.527701,21167.527701,0.998198,10.0,49.7907712912104,0.0,0.014569899826324392,-0.002304769496527263,-0.014288091230524934,0.005518346065349057,0.0006,nan
106,5.0,0.0,-0.01,1.0,28601.608558470172,28609.527701,21167.527701,0.998198,10.0,49.7907712912104,0.0,0.013556034621775796,-0.0020525615856428155,-0.01342295976906779,0.005127670145549538,0.0006,nan
107,5.0,0.0,-0.015,1.0,28601.608558470183,28609.527701,21167.527701,0.998198,10.0,49.7907712912104,0.0,0.012544898114120634,-0.0017986383896350577,-0.012529834524099132,0.004740242340018369,0.0006,nan
108,5.0,0.0,-0.02,1.0,28601.608558470212,28609.527701,21167.527701,0.998198,10.0,49.7907712912104,0.0,0.011544431862763752,-0.0015446026034823767,-0.011621250802683598,0.004359168361846297,0.0006,nan
109,5.0,0.0,-0.025,1.0,28601.60855847025,28609.527701,21167.527701,0.998198,10.0,49.7907712912104,0.0,0.010562315023799635,-0.0012919191411872605,-0.010708954401494445,0.003989134341171041,0.0006,nan
110,5.0,1.0,0.025,0.1,28601.608558470172,28609.527701,21167.527701,0.998198,10.0,3.5916785663655584,46.19909272484483,-342.5080512391373,-5163.554622016159,-0.002904552356668505,0.0012060663191837465,0.0006,nan
111,5.0,1.0,0.02,0.1,28601.608558470212,28609.527701,21167.527701,0.998198,10.0,3.5916785663655584,46.19909272484483,-247.4732809824071,-8038.388662328735,-0.002802545425273678,0.001146922777577836,0.0006,nan
112,5.0,1.0,0.015,0.1,28601.608558470194,28609.527701,21167.527701,0.998198,10.0,3.5916785663655584,46.19909272484483,-1150.4987303608796,-2685.4661973824363,-0.0023714990714811465,0.0009581201610028789,0.0006,nan
113,5.0,1.0,0.01,0.1,28601.608558470212,28609.527701,21167.527701,0.998198,10.0,3.5916785663655584,46.19909272484483,-189.65621938880545,-6041.716160472551,-0.0022399858764120097,0.0008952979099732862,0.0006,nan
114,5.0,1.0,0.005,0.1,28601.608558470223,28609.527701,21167.527701,0.998198,10.0,3.5916785663655584,46.19909272484483,-109.83198670458499,-3083.084292337375,-0.0019260350994068998,0.0007628586424575991,0.0006,nan
115,5.0,1.0,0.0,0.1,28601.608558470212,28609.527701,21167.527701,0.998198,10.0,3.5916785663655584,46.19909272484483,-169.1910145574554,-852.4801421231413,-0.0017912178473834986,0.0007043103722845928,0.0006,nan
116,5.0,1.0,-0.005,0.1,28601.608558470198,28609.527701,21167.527701,0.998198,10.0,3.5916785663655584,46.19909272484483,460.27855685577384,-6733.32189958482,-0.0016474982533812887,0.0006445942866965883,0.0006,nan
117,5.0,1.0,-0.01,0.1,28601.608558470245,28609.527701,21167.527701,0.998198,10.0,3.5916785663655584,46.19909272484483,-2841.9035730240594,-1169.9889197080292,-0.0014314152938971086,0.0005579328254214143,0.0006,nan
118,5.0,1.0,-0.015,0.1,28601.60855847021,28609.527701,21167.527701,0.998198,10.0,3.5916785663655584,46.19909272484483,-1729.2234205081168,-5984.62103224383,-0.001364698084478656,0.000530916308708742,0.0006,nan
119,5.0,1.0,-0.02,0.1,28601.608558470216,28609.527701,21167.527701,0.998198,10.0,3.5916785663655584,46.19909272484483,-192.0417297221256,-1310.2781734612588,-0.001190867140794909,0.0004629931662159071,0.0006,nan
120,5.0,1.0,-0.025,0.1,28601.608558470212,28609.527701,21167.527701,0.998198,10.0,3.5916785663655584,46.19909272484483,-144.80044061125292,-6543.974375866784,-0.0010435824078242368,0.00040634867747016645,0.0006,nan
121,5.0,1.0,0.025,0.2,28601.608558470198,28609.527701,21167.527701,0.998198,10.0,7.770712965019921,42.02005832619048,-701.1510265772677,-1927.2829002244102,-0.0049344208190851965,0.0019814017897284535,0.0006,nan
122,5.0,1.0,0.02,0.2,28601.608558470198,28609.527701,21167.527701,0.998198,10.0,7.770712965019921,42.02005832619048,-4388.012136684389,-7229.412196105391,-0.004791655869891197,0.0018908195024862767,0.0006,nan
123,5.0,1.0,0.015,0.2,28601.608558470183,28609.527701,21167.527701,0.998198,10.0,7.770712965019921,42.02005832619048,-2720.7508502855935,-757.0795350015184,-0.00428629929310613,0.001667394408909673,0.0006,nan
124,5.0,1.0,0.01,0.2,28601.608558470216,28609.527701,21167.527701,0.998198,10.0,7.770712965019921,42.02005832619048,-1558.3457424753115,-3132.6614099304734,-0.0041566438386412595,0.0015955983412675645,0.0006,nan
125,5.0,1.0,0.005,0.2,28601.608558470198,28609.527701,21167.527701,0.998198,10.0,7.770712965019921,42.02005832619048,-5028.454416788898,-4402.268711151026,-0.0037850548729106382,0.0014372693757734917,0.0006,nan
126,5.0,1.0,0.0,0.2,28601.608558470194,28609.527701,21167.527701,0.998198,10.0,7.770712965019921,42.02005832619048,-3900.493150671849,-2773.6282450375547,-0.003462466234205856,0.001303692553471527,0.0006,nan
127,5.0,1.0,-0.005,0.2,28601.608558470172,28609.527701,21167.527701,0.998198,10.0,7.770712965019921,42.02005832619048,-344.44742878792835,-4183.730932640181,-0.003235620879170366,0.0012095856770792252,0.0006,nan
128,5.0,1.0,-0.01,0.2,28601.608558470194,28609.527701,21167.527701,0.998198,10.0,7.770712965019921,42.02005832619048,-4128.855910587634,798.2154708160849,-0.0028092452014221387,0.0010448808697388068,0.0006,nan
129,5.0,1.0,-0.015,0.2,28601.608558470245,28609.527701,21167.527701,0.998198,10.0,7.770712965019921,42.02005832619048,1376.606988023117,-3561.923846013766,-0.00272895746583112,0.0010118103640042767,0.0006,nan
130,5.0,1.0,-0.02,0.2,28601.608558470216,28609.527701,21167.527701,0.998198,10.0,7.770712965019921,42.02005832619048,-1630.7794908684275,-264.37208139828084,-0.0022453848622591335,0.0008310520563396865,0.0006,nan
131,5.0,1.0,-0.025,0.2,28601.608558470216,28609.527701,21167.527701,0.998198,10.0,7.770712965019921,42.02005832619048,-1906.8772225437376,-5701.800918790727,-0.002162661836948592,0.0008003928031749241,0.0006,nan
132,5.0,1.0,0.025,0.3,28601.608558470245,28609.527701,21167.527701,0.998198,10.0,12.147431156965052,37.64334013424536,-989.408566348424,-6418.322880401287,-0.007406055857919328,0.002962537121934804,0.0006,nan
133,5.0,1.0,0.02,0.3,28601.608558470223,28609.527701,21167.527701,0.998198,10.0,12.147431156965052,37.64334013424536,-1440.7626074845045,-1953.7989364400285,-0.006169319418573521,0.0024243906619304716,0.0006,nan
134,5.0,1.0,0.015,0.3,28601.608558470172,28609.527701,21167.527701,0.998198,10.0,12.147431156965052,37.64334013424536,-805.2002025272832,-1615.1548607992047,-0.005776067831656017,0.0022334885219359303,0.0006,nan
135,5.0,1.0,0.01,0.3,28601.608558470198,28609.527701,21167.527701,0.998198,10.0,12.147431156965052,37.64334013424536,383.6421336777554,-1761.2490948026445,-0.00587437287178897,0.002240560193842118,0.0006,nan
136,5.0,1.0,0.005,0.3,28601.608558470194,28609.527701,21167.527701,0.998198,10.0,12.147431156965052,37.64334013424536,-5903.560600031149,-4959.1467111789625,-0.0055298321735494675,0.002082987405218616,0.0006,nan
137,5.0,1.0,0.0,0.3,28601.608558470212,28609.527701,21167.527701,0.998198,10.0,12.147431156965052,37.64334013424536,1070.154347157024,-2632.3071070185133,-0.005241350983143293,0.0019548002629507315,0.0006,nan
138,5.0,1.0,-0.005,0.3,28601.608558470205,28609.527701,21167.527701,0.998198,10.0,12.147431156965052,37.64334013424536,-1537.6103599268622,-3827.3136361817096,-0.004751123139814424,0.0017578003619202855,0.0006,nan
139,5.0,1.0,-0.01,0.3,28601.608558470245,28609.527701,21167.527701,0.998198,10.0,12.147431156965052,37.64334013424536,3916.5576340978278,-450.09391965293423,-0.004172815573111026,0.0015343817007962585,0.0006,nan
140,5.0,1.0,-0.015,0.3,28601.60855847025,28609.527701,21167.527701,0.998198,10.0,12.147431156965052,37.64334013424536,-14548.683095939445,-4017.101384336517,-0.003947333370216603,0.00144481462188037,0.0006,nan
141,5.0,1.0,-0.02,0.3,28601.608558470212,28609.527701,21167.527701,0.998198,10.0,12.147431156965052,37.64334013424536,4728.188588570434,-1411.901581542316,-0.003502638285206028,0.0012789577060382973,0.0006,nan
142,5.0,1.0,-0.025,0.3,28601.608558470245,28609.527701,21167.527701,0.998198,10.0,12.147431156965052,37.64334013424536,6498.604405212106,-1470.834282489533,-0.0031397594730675333,0.0011449035937185958,0.0006,nan
143,5.0,1.0,0.025,0.4,28601.608558470223,28609.527701,21167.527701,0.998198,10.0,17.22002654548703,32.57074474572336,-2752.617976847293,-2515.717077192232,-0.008791594832424763,0.003512450788827734,0.0006,nan
144,5.0,1.0,0.02,0.4,28601.608558470205,28609.527701,21167.527701,0.998198,10.0,17.22002654548703,32.57074474572336,-5321.755086050143,-3304.612306350178,-0.008472576828756193,0.003322813895934096,0.0006,nan
145,5.0,1.0,0.015,0.4,28601.608558470198,28609.527701,21167.527701,0.998198,10.0,17.22002654548703,32.57074474572336,-613.0350426053536,-1288.704747346894,-0.007962420071795377,0.0030728139378301206,0.0006,nan
146,5.0,1.0,0.01,0.4,28601.608558470245,28609.527701,21167.527701,0.998198,10.0,17.22002654548703,32.57074474572336,192.31331640065287,-1516.0678149294865,-0.0076752997580119995,0.002919742576310185,0.0006,nan
147,5.0,1.0,0.005,0.4,28601.608558470212,28609.527701,21167.527701,0.998198,10.0,17.22002654548703,32.57074474572336,640.1305953292124,17.22459463575552,-0.007343740858727382,0.002760811614721363,0.0006,nan
148,5.0,1.0,0.0,0.4,28601.608558470216,28609.527701,21167.527701,0.998198,10.0,17.22002654548703,32.57074474572336,-4775.843773367137,-3349.723209212906,-0.0067182590087267085,0.002497418947138139,0.0006,nan
149,5.0,1.0,-0.005,0.4,28601.608558470183,28609.527701,21167.527701,0.998198,10.0,17.22002654548703,32.57074474572336,-4984.733072958852,-1113.029935552236,-0.006043172557474404,0.0022276412837153483,0.0006,nan
150,5.0,1.0,-0.01,0.4,28601.608558470212,28609.527701,21167.527701,0.998198,10.0,17.22002654548703,32.57074474572336,3428.2429058340012,-3580.426689764405,-0.005879717676648689,0.002151377636282337,0.0006,nan
151,5.0,1.0,-0.015,0.4,28601.608558470172,28609.527701,21167.527701,0.998198,10.0,17.22002654548703,32.57074474572336,2231.986204293081,-5147.293298771405,-0.005353980244138644,0.0019483085889098293,0.0006,nan
152,5.0,1.0,-0.02,0.4,28601.608558470183,28609.527701,21167.527701,0.998198,10.0,17.22002654548703,32.57074474572336,-5432.872835841785,-8670.176344079024,-0.005037503931586857,0.001826311321547501,0.0006,nan
153,5.0,1.0,-0.025,0.4,28601.608558470216,28609.527701,21167.527701,0.998198,10.0,17.22002654548703,32.57074474572336,-4111.516473915679,-4128.108708869798,-0.004412119085499381,0.0015969980485096222,0.0006,nan
154,5.0,1.0,0.025,0.5,28601.608558470172,28609.527701,21167.527701,0.998198,10.0,24.89436759530586,24.896403695904525,-3328.6625677816955,-2899.6002849996016,-0.011980428150031022,0.004880626508622837,0.0006,nan
155,5.0,1.0,0.02,0.5,28601.608558470212,28609.527701,21167.527701,0.998198,10.0,24.89436759530586,24.896403695904525,-4456.714417216655,-3465.899227713715,-0.011946320043250096,0.004773897377860293,0.0006,nan
156,5.0,1.0,0.015,0.5,28601.608558470245,28609.527701,21167.527701,0.998198,10.0,24.89436759530586,24.896403695904525,-2651.892433132676,-4981.77599053355,-0.012247377502061946,0.00480776786900135,0.0006,nan
157,5.0,1.0,0.01,0.5,28601.608558470183,28609.527701,21167.527701,0.998198,10.0,24.89436759530586,24.896403695904525,-6505.715031274972,-4884.779095279332,-0.010398749812880217,0.004017999414847885,0.0006,nan
158,5.0,1.0,0.005,0.5,28601.60855847025,28609.527701,21167.527701,0.998198,10.0,24.89436759530586,24.896403695904525,-10989.926382989424,-3331.786070501678,-0.010072996497175718,0.003839610720638449,0.0006,nan
159,5.0,1.0,0.0,0.5,28601.608558470172,28609.527701,21167.527701,0.998198,10.0,24.89436759530586,24.896403695904525,-140.33512793233226,-3003.883638719646,-0.009626826084743384,0.003626106344382038,0.0006,nan
160,5.0,1.0,-0.005,0.5,28601.608558470198,28609.527701,21167.527701,0.998198,10.0,24.89436759530586,24.896403695904525,2210.6749993872704,-2056.9339551041685,-0.008769485403246248,0.0032704368119178652,0.0006,nan
161,5.0,1.0,-0.01,0.5,28601.608558470245,28609.527701,21167.527701,0.998198,10.0,24.89436759530586,24.896403695904525,-3491.719168126838,-2270.6189145891176,-0.008286863176311887,0.0030642613459678667,0.0006,nan
162,5.0,1.0,-0.015,0.5,28601.608558470205,28609.527701,21167.527701,0.998198,10.0,24.89436759530586,24.896403695904525,591.0187105336778,-148.08863253976222,-0.006865422690539495,0.0025213644745422,0.0006,nan
163,5.0,1.0,-0.02,0.5,28601.608558470216,28609.527701,21167.527701,0.998198,10.0,24.89436759530586,24.896403695904525,-3327.7414921976065,2400.377041001778,-0.006745859026752767,0.0024664055706667036,0.0006,nan
164,5.0,1.0,-0.025,0.5,28601.60855847025,28609.527701,21167.527701,0.998198,10.0,24.89436759530586,24.896403695904525,-13335.221240669573,-643.4492319061263,-0.00608034972637702,0.00221250765859428,0.0006,nan
165,5.0,1.0,0.025,0.6,28601.608558470198,28609.527701,21167.527701,0.998198,10.0,27.61617316625526,22.174598124955118,-3719.0318423535723,284.28363960096965,-0.012702298629417288,0.005248964488560241,0.0006,nan
166,5.0,1.0,0.02,0.6,28601.60855847019,28609.527701,21167.527701,0.998198,10.0,27.61617316625526,22.174598124955118,-6626.24641628593,-2825.8159006203837,-0.011910613572950937,0.004822255431788736,0.0006,nan
167,5.0,1.0,0.015,0.6,28601.608558470205,28609.527701,21167.527701,0.998198,10.0,27.61617316625526,22.174598124955118,-6824.514861269791,-1743.7374961491355,-0.012397591475556496,0.0049315893184690325,0.0006,nan
168,5.0,1.0,0.01,0.6,28601.608558470172,28609.527701,21167.527701,0.998198,10.0,27.61617316625526,22.174598124955118,-2276.8654141926604,-1412.702092933524,-0.01108521458124515,0.004342049009092847,0.0006,nan
169,5.0,1.0,0.005,0.6,28601.60855847025,28609.527701,21167.527701,0.998198,10.0,27.61617316625526,22.174598124955118,-11411.58748749778,-2889.779601281208,-0.010571485220281519,0.00408101374811942,0.0006,nan
170,5.0,1.0,0.0,0.6,28601.608558470198,28609.527701,21167.527701,0.998198,10.0,27.61617316625526,22.174598124955118,154.71176957909577,-4853.7218736502,-0.010063084772578083,0.0038347430116089523,0.0006,nan
171,5.0,1.0,-0.005,0.6,28601.608558470194,28609.527701,21167.527701,0.998198,10.0,27.61617316625526,22.174598124955118,-6715.820994616897,-4080.7682242898277,-0.009472351184496484,0.00357320074816069,0.0006,nan
172,5.0,1.0,-0.01,0.6,28601.608558470194,28609.527701,21167.527701,0.998198,10.0,27.61617316625526,22.174598124955118,-5904.864962912766,599.5629210313567,-0.008523658278966624,0.003190705991285752,0.0006,nan
173,5.0,1.0,-0.015,0.6,28601.608558470194,28609.527701,21167.527701,0.998198,10.0,27.61617316625526,22.174598124955118,-6427.998287649133,-5682.035016069821,-0.007996751920819882,0.002967114676930788,0.0006,nan
174,5.0,1.0,-0.02,0.6,28601.60855847025,28609.527701,21167.527701,0.998198,10.0,27.61617316625526,22.174598124955118,-14502.245551036734,-4732.775397000577,-0.007704936502812389,0.002842669281344576,0.0006,nan
175,5.0,1.0,-0.025,0.6,28601.608558470216,28609.527701,21167.527701,0.998198,10.0,27.61617316625526,22.174598124955118,-3727.752304834354,-1537.490953741661,-0.006470982079253326,0.0023790620355601142,0.0006,nan
176,5.0,1.0,0.025,0.7,28601.60855847025,28609.527701,21167.527701,0.998198,10.0,32.643350396126614,17.14742089508376,-10931.331871329945,-3423.6162309537126,-0.014614467179462071,0.006088064756307683,0.0006,nan
177,5.0,1.0,0.02,0.7,28601.60855847019,28609.527701,21167.527701,0.998198,10.0,32.643350396126614,17.14742089508376,-7041.946026922525,-2742.5032061242423,-0.013614260786772104,0.005561385431629365,0.0006,nan
178,5.0,1.0,0.015,0.7,28601.608558470183,28609.527701,21167.527701,0.998198,10.0,32.643350396126614,17.14742089508376,-6937.324470175909,1553.6583845704106,-0.012856996368311991,0.00516802966973507,0.0006,nan
179,5.0,1.0,0.01,0.7,28601.608558470172,28609.527701,21167.527701,0.998198,10.0,32.643350396126614,17.14742089508376,-3300.1133164503035,-2099.5878382076185,-0.012705579518684526,0.005015808130836001,0.0006,nan
180,5.0,1.0,0.005,0.7,28601.608558470216,28609.527701,21167.527701,0.998198,10.0,32.643350396126614,17.14742089508376,-6295.7291266007005,1904.7967457024051,-0.011781518439014866,0.004594083047078748,0.0006,nan
181,5.0,1.0,0.0,0.7,28601.608558470198,28609.527701,21167.527701,0.998198,10.0,32.643350396126614,17.14742089508376,-863.6125640517073,-5024.072873818683,-0.011816628847487345,0.0045346659080986555,0.0006,nan
182,5.0,1.0,-0.005,0.7,28601.608558470172,28609.527701,21167.527701,0.998198,10.0,32.643350396126614,17.14742089508376,-1163.7930796382802,-5422.402674975265,-0.011160601925502443,0.00423426733821075,0.0006,nan
183,5.0,1.0,-0.01,0.7,28601.608558470223,28609.527701,21167.527701,0.998198,10.0,32.643350396126614,17.14742089508376,-2519.317018210557,-3973.5546870491494,-0.010306188058269446,0.0038799669960294966,0.0006,nan
184,5.0,1.0,-0.015,0.7,28601.608558470194,28609.527701,21167.527701,0.998198,10.0,32.643350396126614,17.14742089508376,-6952.869130547403,-6083.466667438525,-0.009437720783174994,0.0035196146720423618,0.0006,nan
185,5.0,1.0,-0.02,0.7,28601.60855847025,28609.527701,21167.527701,0.998198,10.0,32.643350396126614,17.14742089508376,-14721.675943788978,-3953.9934979450427,-0.008675062176984456,0.0032147566665024813,0.0006,nan
186,5.0,1.0,-0.025,0.7,28601.608558470198,28609.527701,21167.527701,0.998198,10.0,32.643350396126614,17.14742089508376,-8812.38846630439,-1908.858820726227,-0.007678759508418816,0.0028343733666573788,0.0006,nan
187,5.0,1.0,0.025,0.8,28601.60855847021,28609.527701,21167.527701,0.998198,10.0,37.89777300933089,11.892998281879494,-5752.514581428237,-10092.266750667997,-0.01708265736663363,0.007150234188982177,0.0006,nan
188,5.0,1.0,0.02,0.8,28601.608558470227,28609.527701,21167.527701,0.998198,10.0,37.89777300933089,11.892998281879494,-3350.813779195504,-1038.5841886808646,-0.015097312723790472,0.006200055234480879,0.0006,nan
189,5.0,1.0,0.015,0.8,28601.60855847025,28609.527701,21167.527701,0.998198,10.0,37.89777300933089,11.892998281879494,-10965.903118253465,-3106.506459179049,-0.014750824865339846,0.005945771752831263,0.0006,nan
190,5.0,1.0,0.01,0.8,28601.60855847025,28609.527701,21167.527701,0.998198,10.0,37.89777300933089,11.892998281879494,-13092.176325967066,-7258.2394337517035,-0.015511035677064374,0.006141717606157685,0.0006,nan
191,5.0,1.0,0.005,0.8,28601.608558470223,28609.527701,21167.527701,0.998198,10.0,37.89777300933089,11.892998281879494,-2936.28498722918,-2929.575079621107,-0.013712842856886778,0.0053646465336172405,0.0006,nan
192,5.0,1.0,0.0,0.8,28601.608558470223,28609.527701,21167.527701,0.998198,10.0,37.89777300933089,11.892998281879494,-3577.019647966309,-5967.497544225706,-0.013331142583272759,0.005138870820332273,0.0006,nan
193,5.0,1.0,-0.005,0.8,28601.608558470198,28609.527701,21167.527701,0.998198,10.0,37.89777300933089,11.892998281879494,-337.5480423456999,-274.02140478839607,-0.012190164666705475,0.004655848814883163,0.0006,nan
194,5.0,1.0,-0.01,0.8,28601.60855847025,28609.527701,21167.527701,0.998198,10.0,37.89777300933089,11.892998281879494,-13211.855479599008,-2987.650695885434,-0.011295277375482046,0.004267628349745137,0.0006,nan
195,5.0,1.0,-0.015,0.8,28601.608558470245,28609.527701,21167.527701,0.998198,10.0,37.89777300933089,11.892998281879494,488.345753035135,-2351.0300463045614,-0.010880207693766427,0.004074797800942184,0.0006,nan
196,5.0,1.0,-0.02,0.8,28601.608558470198,28609.527701,21167.527701,0.998198,10.0,37.89777300933089,11.892998281879494,2820.07370920817,-4124.176768135461,-0.009912632433988123,0.0036868303123723683,0.0006,nan
197,5.0,1.0,-0.025,0.8,28601.608558470198,28609.527701,21167.527701,0.998198,10.0,37.89777300933089,11.892998281879494,-9280.003499095754,-4096.334588302365,-0.008798427868239648,0.003252861963380452,0.0006,nan
198,5.0,1.0,0.025,0.9,28601.608558470223,28609.527701,21167.527701,0.998198,10.0,43.29852718567896,6.492244105531421,-5147.119987013961,-5885.893579595693,-0.017574807243780268,0.007434862110172553,0.0006,nan
199,5.0,1.0,0.02,0.9,28601.608558470172,28609.527701,21167.527701,0.998198,10.0,43.29852718567896,6.492244105531421,-4498.634366684661,324.2858280785829,-0.017645113620581007,0.007332228589653082,0.0006,nan
200,5.0,1.0,0.015,0.9,28601.608558470198,28609.527701,21167.527701,0.998198,10.0,43.29852718567896,6.492244105531421,-9287.157101833602,2286.3450167260853,-0.01645238838558286,0.00670909297848244,0.0006,nan
201,5.0,1.0,0.01,0.9,28601.608558470194,28609.527701,21167.527701,0.998198,10.0,43.29852718567896,6.492244105531421,-7359.34623772499,-5571.658952758718,-0.016396392458132864,0.006549183930472573,0.0006,nan
202,5.0,1.0,0.005,0.9,28601.608558470223,28609.527701,21167.527701,0.998198,10.0,43.29852718567896,6.492244105531421,-2805.3268122595127,-2146.8109171356323,-0.014523132165029151,0.005733338148905837,0.0006,nan
203,5.0,1.0,0.0,0.9,28601.608558470245,28609.527701,21167.527701,0.998198,10.0,43.29852718567896,6.492244105531421,-2240.205463462542,-5134.254597928776,-0.014755134241557527,0.005736451384029425,0.0006,nan
204,5.0,1.0,-0.005,0.9,28601.60855847025,28609.527701,21167.527701,0.998198,10.0,43.29852718567896,6.492244105531421,-13790.954296307684,-316.21482117364155,-0.014129025030081436,0.005442697147730661,0.0006,nan
205,5.0,1.0,-0.01,0.9,28601.608558470223,28609.527701,21167.527701,0.998198,10.0,43.29852718567896,6.492244105531421,-826.6621374514492,-5295.399772789387,-0.01251141909132689,0.004757377066375165,0.0006,nan
206,5.0,1.0,-0.015,0.9,28601.608558470205,28609.527701,21167.527701,0.998198,10.0,43.29852718567896,6.492244105531421,-6442.9846582036935,-5569.503424863265,-0.01227221243888663,0.004619712002325067,0.0006,nan
207,5.0,1.0,-0.02,0.9,28601.608558470245,28609.527701,21167.527701,0.998198,10.0,43.29852718567896,6.492244105531421,2400.7297639478325,-4937.979357636468,-0.010373709873832673,0.0038757493679462958,0.0006,nan
208,5.0,1.0,-0.025,0.9,28601.608558470223,28609.527701,21167.527701,0.998198,10.0,43.29852718567896,6.492244105531421,1882.0882376697966,-6378.0011176039625,-0.009830778414885822,0.0036504255961249984,0.0006,nan
209,5.0,1.0,0.025,1.0,28601.608558470183,28609.527701,21167.527701,0.998198,10.0,49.7907712912104,0.0,-8385.2504378155,-4057.714473911961,-0.019866746893005084,0.008369830891573452,0.0006,nan
210,5.0,1.0,0.02,1.0,28601.608558470172,28609.527701,21167.527701,0.998198,10.0,49.7907712912104,0.0,-5056.170449453104,-2256.754125290896,-0.020623219902577174,0.008521528697420977,0.0006,nan
211,5.0,1.0,0.015,1.0,28601.608558470176,28609.527701,21167.527701,0.998198,10.0,49.7907712912104,0.0,-9907.46321447624,-2465.81070998104,-0.018455392637881655,0.007484247377892006,0.0006,nan
212,5.0,1.0,0.01,1.0,28601.608558470245,28609.527701,21167.527701,0.998198,10.0,49.7907712912104,0.0,-3523.214638947951,-4068.0083514907246,-0.01727827427264818,0.006893039002159378,0.0006,nan
213,5.0,1.0,0.005,1.0,28601.60855847025,28609.527701,21167.527701,0.998198,10.0,49.7907712912104,0.0,-11797.77396239712,-1867.9327010388974,-0.016438402667092233,0.00646014164384267,0.0006,nan
214,5.0,1.0,0.0,1.0,28601.608558470212,28609.527701,21167.527701,0.998198,10.0,49.7907712912104,0.0,-3079.5033089844633,689.0432947485111,-0.016083880263773116,0.006239301007320217,0.0006,nan
215,5.0,1.0,-0.005,1.0,28601.608558470172,28609.527701,21167.527701,0.998198,10.0,49.7907712912104,0.0,-4093.556937620217,-2168.443544451459,-0.015044991811246439,0.005762273200458149,0.0006,nan
216,5.0,1.0,-0.01,1.0,28601.60855847025,28609.527701,21167.527701,0.998198,10.0,49.7907712912104,0.0,-13199.96628092688,-3077.9067167057897,-0.013966370184345437,0.005287629071441602,0.0006,nan
217,5.0,1.0,-0.015,1.0,28601.60855847025,28609.527701,21167.527701,0.998198,10.0,49.7907712912104,0.0,-13652.677645297957,-5223.272285594856,-0.012756379591668414,0.004778072187166889,0.0006,nan
218,5.0,1.0,-0.02,1.0,28601.608558470194,28609.527701,21167.527701,0.998198,10.0,49.7907712912104,0.0,-6746.411685439118,3411.469074184979,-0.011743832942793596,0.00437918358781179,0.0006,nan
219,5.0,1.0,-0.025,1.0,28601.608558470216,28609.527701,21167.527701,0.998198,10.0,49.7907712912104,0.0,-5231.050585166791,949.3717632137894,-0.011380176413781232,0.004208760570569499,0.0006,nan
